{
  "kind": "collectionType",
  "collectionName": "posts",
  "info": {
    "singularName": "post",
    "pluralName": "posts",
    "displayName": "Post"
  },
  "options": {
    "draftAndPublish": true
  },
  "pluginOptions": {},
  "attributes": {
    "Name": {
      "type": "string",
      "unique": true
    },
    "Date": {
      "type": "string"
    },
    "Content": {
      "type": "string",
      "unique": true
    }
  }
}
